-------------------------------------------------------------------------------
Test set: com.demo.ear.AppTest
-------------------------------------------------------------------------------
Tests run: 1, Failures: 0, Errors: 0, Skipped: 0, Time elapsed: 0.011 s - in com.demo.ear.AppTest
